{"status":200,"msg":"鎿嶄綔鎴愬姛","data":{"items":[{"id":12708,"slug":"golden-hour-eiffel-legs","title":"榛勯噾鏃跺埢閾佸涓嬬殑淇暱缇庤吙鐗瑰啓","media_type":"image","cover_image":"https://img.opennana.com/pthumbs/https://img.opennana.com/prompts/assets/202604/1775078343571-f8qlkhde-1-480.jpg"},{"id":12716,"slug":"seductive-villainess-sheet","title":"榄呮儜鎭跺焦鍗冮噾鐨勫琛ㄦ儏璁惧畾鍥?,"media_type":"image","cover_image":"https://img.opennana.com/pthumbs/https://img.opennana.com/prompts/assets/202604/1775078504514-846wp0vg-1-480.jpg"},{"id":12732,"slug":"ultra-realistic-modern-recreation","title":"鑰佺収鐗囩殑瓒呭啓瀹炵幇浠ｉ噸濉?,"media_type":"image","cover_image":"https://img.opennana.com/pthumbs/https://img.opennana.com/prompts/assets/202604/1775078877862-2yn9qoqc-1-480.jpg"},{"id":12739,"slug":"premium-product-aesthetic-grid","title":"缁濈編涔濆鏍肩殑楂樼骇鎰熶骇鍝佺編瀛?,"media_type":"image","cover_image":"https://img.opennana.com/pthumbs/https://img.opennana.com/prompts/assets/202604/1775079046016-smsz6cmq-1-480.jpg"},{"id":12751,"slug":"romantic-floating-heart-jewelry","title":"娴极鎮诞蹇冪粨鐜粫鐨勫ア鍗庣彔瀹?,"media_type":"image","cover_image":"https://img.opennana.com/pthumbs/https://img.opennana.com/prompts/assets/202604/1775079317740-np43d3bi-1-480.jpg"},{"id":12758,"slug":"century-fashion-evolution","title":"鐧惧勾鏃跺皻婕斿彉锛氬崄鍏釜骞翠唬鐨勫コ鎬ц倴鍍?,"media_type":"image","cover_image":"https://img.opennana.com/pthumbs/https://img.opennana.com/prompts/assets/202604/1775079473649-qbs3a3cl-1-480.jpg"},{"id":12761,"slug":"mech-symbiosis-power-awakening","title":"鏈虹敳鍏辩敓鏋佷綆瑙嗚鍔涢噺瑙夐啋","media_type":"image","cover_image":"https://img.opennana.com/pthumbs/https://img.opennana.com/prompts/assets/202604/1775079537342-f5qyeiip-1-480.jpg"},{"id":12802,"slug":"healing-girl-painting-wall","title":"娌绘剤绯诲皯濂崇矇鍒峰闈㈢殑鐢靛奖鐭墖","media_type":"image","cover_image":"https://img.opennana.com/pthumbs/https://img.opennana.com/prompts/assets/202604/1775080520884-olk5lkvr-1-480.jpg"},{"id":12803,"slug":"monet-ethereal-boating","title":"鑾绗斾笅鐨勭┖鐏垫硾鑸熷够澧?,"media_type":"image","cover_image":"https://img.opennana.com/pthumbs/https://img.opennana.com/prompts/assets/202604/1775080541978-qpj0a0th-1-480.jpg"},{"id":12804,"slug":"manga-jeanne-darc-nagatacho","title":"姘哥敯鐢虹殑婕敾鐗堝湥濂宠礊寰?,"media_type":"image","cover_image":"https://img.opennana.com/pthumbs/https://img.opennana.com/prompts/assets/202604/1775080554161-k552j539-1-480.jpg"},{"id":4,"title":"chatgpt","type":"image","position":"gallery_list","image_url":"https://img.opennana.com/prompts/assets/202604/sponsor-1775209261102-1.png","text_content":null,"link_url":"https://www.gamsgo.com/zh/details/chatgpt/partner/dGBWp","link_type":"external","display_count":"32954","click_count":"40","_is_sponsor":true},{"id":12805,"slug":"cosmic-dragon-duel-kongming","title":"鎸佺鍜掔窘鎵囩殑瀛旀槑涓庝徊杈炬槦闄呭法榫欏鍐?,"media_type":"image","cover_image":"https://img.opennana.com/pthumbs/https://img.opennana.com/prompts/assets/202604/1775080570959-rqdusumf-1-480.jpg"},{"id":12807,"slug":"lego-fantasy-kitchen-real-food","title":"涔愰珮骞诲鍘ㄦ埧涓庣湡瀹為鐗╁啺绠?,"media_type":"image","cover_image":"https://img.opennana.com/pthumbs/https://img.opennana.com/prompts/assets/202604/1775080607938-ubc8kpqu-1-480.jpg"},{"id":12808,"slug":"golden-slash-axe-vs-rathian","title":"閲戝厜鏂╁嚮鏂ф縺鎴橀噾杩呴緳","media_type":"image","cover_image":"https://img.opennana.com/pthumbs/https://img.opennana.com/prompts/assets/202604/1775080622100-hjnxg3jc-1-480.jpg"},{"id":12811,"slug":"zhuge-vs-sima-water-fire-dragons","title":"璇歌憶浜鍐冲徃椹嚳姘寸伀宸ㄩ緳鏃犲弻涔辫垶","media_type":"image","cover_image":"https://img.opennana.com/pthumbs/https://img.opennana.com/prompts/assets/202604/1775080688704-mwrebgp9-1-480.jpg"},{"id":12840,"slug":"realistic-girl-anime-avatar","title":"瓒呭啓瀹炲皯濂充笌浜屾鍏冨ご鍍忕殑濂囧纰版挒","media_type":"image","cover_image":"https://img.opennana.com/pthumbs/https://img.opennana.com/prompts/assets/202604/1775081432969-evumrx6f-1-480.jpg"},{"id":12842,"slug":"luxury-citrus-tonic-splash","title":"濂㈠崕鏌戞姘旀场姘撮珮閫熼婧呮憚褰?,"media_type":"image","cover_image":"https://img.opennana.com/pthumbs/https://img.opennana.com/prompts/assets/202604/1775081489175-4tzmkbsu-1-480.jpg"},{"id":12841,"slug":"minimalist-white-packaging","title":"鏋佺畝绾櫧搴曟闈㈠寘瑁呰璁?,"media_type":"image","cover_image":"https://img.opennana.com/pthumbs/https://img.opennana.com/prompts/assets/202604/1775081468796-oxiqd9rh-1-480.jpg"},{"id":12851,"slug":"minimalist-bw-men-triptych","title":"鏋佺畝榛戠櫧鐢峰＋鑲栧儚涓夎仈鐢?,"media_type":"image","cover_image":"https://img.opennana.com/pthumbs/https://img.opennana.com/prompts/assets/202604/1775081686499-04koeiqf-1-480.jpg"},{"id":12853,"slug":"renaissance-window-noble-girl","title":"鏂囪壓澶嶅叴鎷辩獥涓嬬殑璐垫棌灏戝コ","media_type":"image","cover_image":"https://img.opennana.com/pthumbs/https://img.opennana.com/prompts/assets/202604/1775081730894-6bgt6hrz-1-480.jpg"},{"id":12852,"slug":"minimal-chocolate-streetwear","title":"鏋佺畝鐏拌皟宸у厠鍔涜壊琛楀ご娼敺澶х墖","media_type":"image","cover_image":"https://img.opennana.com/pthumbs/https://img.opennana.com/prompts/assets/202604/1775081712629-zs6xow17-1-480.jpg"},{"id":6,"title":"gemini","type":"image","position":"gallery_list","image_url":"https://img.opennana.com/prompts/assets/202604/sponsor-1775209342062-1.png","text_content":null,"link_url":"https://www.gamsgo.com/zh/details/gemini/partner/dGBWp","link_type":"external","display_count":"32954","click_count":"58","_is_sponsor":true}],"pagination":{"page":1,"limit":20,"total":3613,"total_pages":181,"has_more":true,"items_count":22}}}
